// Jest Snapshot v1, https://goo.gl/fbAQLP

exports[`Square should match snapshot 1`] = `
<div>
  <div
    data-test="square"
    data-testid="1"
    style="width: 50px; height: 50px; display: inline-block; float: left; background-color: rgb(0, 0, 0);"
  >
    <span
      style="position: relative; top: calc(50% - .5rem);"
    />
  </div>
</div>
`;
